-------------------------------------------------------------------------------
Test set: com.epam.news.dao.hibernate.HibernateUserDAOTest
-------------------------------------------------------------------------------
Tests run: 6, Failures: 0, Errors: 0, Skipped: 0, Time elapsed: 2.922 sec
