-------------------------------------------------------------------------------
Test set: com.epam.news.dao.hibernate.HibernateNewsDAOTest
-------------------------------------------------------------------------------
Tests run: 8, Failures: 0, Errors: 0, Skipped: 0, Time elapsed: 15.883 sec
